{
  "dipendente": {
    "id": 4,
    "codiceFiscale": "PPPPLT80A01H501V",
    "nome": "PIPPO",
    "cognome": "PLUTO",
    "dataDiNascita": "20190101",
    "email": "pippo@test.it",
    "commesseDipendente": [
      {
        "annoMeseInizio": "201903",
        "annoMeseFine": null,
        "commessa": {
          "id": 1,
          "nome": "enel",
          "annoMeseInizio": "201903",
          "annoMeseFine": "201903"
        },
        "id": 8
      },
      {
        "annoMeseInizio": "201903",
        "annoMeseFine": null,
        "commessa": {
          "id": 2,
          "nome": "telecom",
          "annoMeseInizio": "201903",
          "annoMeseFine": "201903"
        },
        "id": 12
      },
      {
        "annoMeseInizio": "201903",
        "annoMeseFine": null,
        "commessa": {
          "id": 3,
          "nome": "autostrade",
          "annoMeseInizio": "201903",
          "annoMeseFine": "201903"
        },
        "id": 16
      }
    ],
    "roleType": "ADMIN"
  },
  "giornate": {
    "dipendente": {
      "id": 4,
      "nome": "PIPPO",
      "cognome": "PLUTO",
      "email": "pippo@test.it"
    },
    "id": 20,
    "annoMese": "201601",
    "approvato": false,
    "consolidato": false,
    "giornate":  [
      {
        "id": 21,
        "giorno": 4,
        "nota": "Giornata FORZA KEY BIZ",
        "giornataCommesse": [
          {
            "id": 22,
            "commessa": {
              "id": 1,
              "nome": "enel",
              "annoMeseInizio": "201903",
              "annoMeseFine": "201903"
            },
            "oreAssegnate": 8
          },
          {
            "id": 23,
            "commessa": {
              "id": 2,
              "nome": "telecom",
              "annoMeseInizio": "201903",
              "annoMeseFine": "201903"
            },
            "oreAssegnate": 6
          },
          {
            "id": 24,
            "commessa": {
              "id": 3,
              "nome": "autostrade",
              "annoMeseInizio": "201903",
              "annoMeseFine": "201903"
            },
            "oreAssegnate": 6
          }
        ]
      },
      {
        "id": 25,
        "giorno": 1,
        "nota": "Giornata =(",
        "giornataCommesse": [
          {
            "id": 26,
            "commessa": {
              "id": 1,
              "nome": "enel",
              "annoMeseInizio": "201903",
              "annoMeseFine": "201903"
            },
            "oreAssegnate": 5
          },
          {
            "id": 27,
            "commessa": {
              "id": 2,
              "nome": "telecom",
              "annoMeseInizio": "201903",
              "annoMeseFine": "201903"
            },
            "oreAssegnate": 5
          },
          {
            "id": 28,
            "commessa": {
              "id": 3,
              "nome": "autostrade",
              "annoMeseInizio": "201903",
              "annoMeseFine": "201903"
            },
            "oreAssegnate": 4
          }
        ]
      },
      {
        "id": 29,
        "giorno": 6,
        "nota": "Giornata Pinsa",
        "giornataCommesse": [
          {
            "id": 30,
            "commessa": {
              "id": 1,
              "nome": "enel",
              "annoMeseInizio": "201903",
              "annoMeseFine": "201903"
            },
            "oreAssegnate": 8
          },
          {
            "id": 31,
            "commessa": {
              "id": 2,
              "nome": "telecom",
              "annoMeseInizio": "201903",
              "annoMeseFine": "201903"
            },
            "oreAssegnate": 6
          },
          {
            "id": 32,
            "commessa": {
              "id": 3,
              "nome": "autostrade",
              "annoMeseInizio": "201903",
              "annoMeseFine": "201903"
            },
            "oreAssegnate": 6
          }
        ]
      },
      {
        "id": 33,
        "giorno": 9,
        "nota": "Giornata =|",
        "giornataCommesse": [
          {
            "id": 34,
            "commessa": {
              "id": 1,
              "nome": "enel",
              "annoMeseInizio": "201903",
              "annoMeseFine": "201903"
            },
            "oreAssegnate": 5
          },
          {
            "id": 35,
            "commessa": {
              "id": 2,
              "nome": "telecom",
              "annoMeseInizio": "201903",
              "annoMeseFine": "201903"
            },
            "oreAssegnate": 5
          },
          {
            "id": 36,
            "commessa": {
              "id": 3,
              "nome": "autostrade",
              "annoMeseInizio": "201903",
              "annoMeseFine": "201903"
            },
            "oreAssegnate": 4
          }
        ]
      }
    ]
  }
}
